{
  "count": 30,
  "next": "http://localhost:8000/api/fileIndex/?page=3",
  "previous": "http://localhost:8000/api/fileIndex/",
  "results": [
    {
      "id": 11,
      "file_path": "/home/gamoreir/data_mlplayground_dqmio/nanodqmio_from_das/store_data_Run2022B_ZeroBias_DQMIO_19Jan2023-v2_2550000_8B0A0310-4A2D-4153-BF42-3F6A396C3622.root",
      "data_era": "2022B",
      "n_entries": 0,
      "n_entries_ingested": 0,
      "st_size": 613745999,
      "st_ctime": "2023-04-24T04:13:46Z",
      "st_mtime": "2023-04-24T04:13:46Z",
      "st_itime": "2024-01-17T10:03:55.209690Z",
      "st_imtime": "2024-01-17T10:03:55.209695Z",
      "status_rh": "INDEXED",
      "status_h1d": "INDEXED",
      "status_h2d": "INDEXED"
    },
    {
      "id": 12,
      "file_path": "/home/gamoreir/data_mlplayground_dqmio/nanodqmio_from_das/store_data_Run2022B_ZeroBias_DQMIO_19Jan2023-v2_2550000_8F4B4FFB-5245-4C06-A1F0-525870E9DA83.root",
      "data_era": "2022B",
      "n_entries": 0,
      "n_entries_ingested": 0,
      "st_size": 1257834141,
      "st_ctime": "2023-04-24T04:13:28Z",
      "st_mtime": "2023-04-24T04:13:28Z",
      "st_itime": "2024-01-17T10:03:55.212568Z",
      "st_imtime": "2024-01-17T10:03:55.212574Z",
      "status_rh": "INDEXED",
      "status_h1d": "INDEXED",
      "status_h2d": "INDEXED"
    },
    {
      "id": 13,
      "file_path": "/home/gamoreir/data_mlplayground_dqmio/nanodqmio_from_das/store_data_Run2022B_ZeroBias_DQMIO_19Jan2023-v2_2550000_9BE1219F-F76E-41AA-B2B6-70E683088D66.root",
      "data_era": "2022B",
      "n_entries": 0,
      "n_entries_ingested": 0,
      "st_size": 5110633,
      "st_ctime": "2023-04-24T04:04:38Z",
      "st_mtime": "2023-04-24T04:04:38Z",
      "st_itime": "2024-01-17T10:03:55.216660Z",
      "st_imtime": "2024-01-17T10:03:55.216667Z",
      "status_rh": "INDEXED",
      "status_h1d": "INDEXED",
      "status_h2d": "INDEXED"
    },
    {
      "id": 14,
      "file_path": "/home/gamoreir/data_mlplayground_dqmio/nanodqmio_from_das/store_data_Run2022B_ZeroBias_DQMIO_19Jan2023-v2_2550000_AE1B99C5-403E-40A1-A06F-620D9C724487.root",
      "data_era": "2022B",
      "n_entries": 0,
      "n_entries_ingested": 0,
      "st_size": 8529687,
      "st_ctime": "2023-04-24T04:13:47Z",
      "st_mtime": "2023-04-24T04:13:47Z",
      "st_itime": "2024-01-17T10:03:55.220287Z",
      "st_imtime": "2024-01-17T10:03:55.220293Z",
      "status_rh": "INDEXED",
      "status_h1d": "INDEXED",
      "status_h2d": "INDEXED"
    },
    {
      "id": 15,
      "file_path": "/home/gamoreir/data_mlplayground_dqmio/nanodqmio_from_das/store_data_Run2022B_ZeroBias_DQMIO_19Jan2023-v2_2550000_BA306EFA-20CD-4656-9442-DE5DB377E5E4.root",
      "data_era": "2022B",
      "n_entries": 0,
      "n_entries_ingested": 0,
      "st_size": 935385616,
      "st_ctime": "2023-04-24T00:10:29Z",
      "st_mtime": "2023-04-24T00:10:29Z",
      "st_itime": "2024-01-17T10:03:55.223407Z",
      "st_imtime": "2024-01-17T10:03:55.223413Z",
      "status_rh": "INDEXED",
      "status_h1d": "INDEXED",
      "status_h2d": "INDEXED"
    },
    {
      "id": 16,
      "file_path": "/home/gamoreir/data_mlplayground_dqmio/nanodqmio_from_das/store_data_Run2022B_ZeroBias_DQMIO_19Jan2023-v2_2550000_CD1B9A0D-1E40-4058-BFC2-B07178D5B31A.root",
      "data_era": "2022B",
      "n_entries": 0,
      "n_entries_ingested": 0,
      "st_size": 63247885,
      "st_ctime": "2023-04-24T04:12:09Z",
      "st_mtime": "2023-04-24T04:12:09Z",
      "st_itime": "2024-01-17T10:03:55.226223Z",
      "st_imtime": "2024-01-17T10:03:55.226229Z",
      "status_rh": "INDEXED",
      "status_h1d": "INDEXED",
      "status_h2d": "INDEXED"
    },
    {
      "id": 17,
      "file_path": "/home/gamoreir/data_mlplayground_dqmio/nanodqmio_from_das/store_data_Run2022B_ZeroBias_DQMIO_19Jan2023-v2_2550000_FC91B007-1909-4201-9D56-E3DAFA79CAA8.root",
      "data_era": "2022B",
      "n_entries": 0,
      "n_entries_ingested": 0,
      "st_size": 195056393,
      "st_ctime": "2023-04-24T04:11:19Z",
      "st_mtime": "2023-04-24T04:11:19Z",
      "st_itime": "2024-01-17T10:03:55.228890Z",
      "st_imtime": "2024-01-17T10:03:55.228894Z",
      "status_rh": "INDEXED",
      "status_h1d": "INDEXED",
      "status_h2d": "INDEXED"
    },
    {
      "id": 18,
      "file_path": "/home/gamoreir/data_mlplayground_dqmio/nanodqmio_from_das/store_data_Run2022B_ZeroBias_DQMIO_19Jan2023-v2_30000_2946B5DA-7867-4823-B759-0EB47ED244A3.root",
      "data_era": "2022B",
      "n_entries": 0,
      "n_entries_ingested": 0,
      "st_size": 5978222,
      "st_ctime": "2023-04-24T04:11:08Z",
      "st_mtime": "2023-04-24T04:11:08Z",
      "st_itime": "2024-01-17T10:03:55.231553Z",
      "st_imtime": "2024-01-17T10:03:55.231560Z",
      "status_rh": "INDEXED",
      "status_h1d": "INDEXED",
      "status_h2d": "INDEXED"
    },
    {
      "id": 19,
      "file_path": "/home/gamoreir/data_mlplayground_dqmio/nanodqmio_from_das/store_data_Run2022B_ZeroBias_DQMIO_19Jan2023-v2_30000_85B17769-07CC-4D99-96A6-0C7638BF23EA.root",
      "data_era": "2022B",
      "n_entries": 0,
      "n_entries_ingested": 0,
      "st_size": 385620477,
      "st_ctime": "2023-04-24T04:11:07Z",
      "st_mtime": "2023-04-24T04:11:07Z",
      "st_itime": "2024-01-17T10:03:55.234571Z",
      "st_imtime": "2024-01-17T10:03:55.234576Z",
      "status_rh": "INDEXED",
      "status_h1d": "INDEXED",
      "status_h2d": "INDEXED"
    },
    {
      "id": 20,
      "file_path": "/home/gamoreir/data_mlplayground_dqmio/nanodqmio_from_das/store_data_Run2022D_ZeroBias_DQMIO_19Jan2023-v2_2550000_AD12D839-BAFE-434A-A417-B11932FA0F7C.root",
      "data_era": "2022D",
      "n_entries": 0,
      "n_entries_ingested": 0,
      "st_size": 595920287,
      "st_ctime": "2023-04-24T04:14:22Z",
      "st_mtime": "2023-04-24T04:14:22Z",
      "st_itime": "2024-01-17T10:03:55.237570Z",
      "st_imtime": "2024-01-17T10:03:55.237575Z",
      "status_rh": "INDEXED",
      "status_h1d": "INDEXED",
      "status_h2d": "INDEXED"
    }
  ]
}
