{
  "count": 30,
  "next": "http://localhost:8000/api/fileIndex/?page=2",
  "previous": null,
  "results": [
    {
      "id": 1,
      "file_path": "/home/gamoreir/data_mlplayground_dqmio/nanodqmio_example.root",
      "data_era": "Unknown",
      "n_entries": 1600,
      "n_entries_ingested": 1600,
      "st_size": 6733285,
      "st_ctime": "2022-12-06T09:10:01Z",
      "st_mtime": "2022-12-06T09:10:01Z",
      "st_itime": "2024-01-17T10:03:55.178298Z",
      "st_imtime": "2024-01-17T15:00:40.531387Z",
      "status_rh": "INDEXED",
      "status_h1d": "OK",
      "status_h2d": "OK"
    },
    {
      "id": 2,
      "file_path": "/home/gamoreir/data_mlplayground_dqmio/nanodqmio_from_das/store_data_Run2022A_ZeroBias_DQMIO_19Jan2023-v2_2550000_B7C5D067-F538-42CE-9261-033D668E62D0.root",
      "data_era": "2022A",
      "n_entries": 28302,
      "n_entries_ingested": 28302,
      "st_size": 21952309,
      "st_ctime": "2023-04-24T00:09:15Z",
      "st_mtime": "2023-04-24T00:09:15Z",
      "st_itime": "2024-01-17T10:03:55.182688Z",
      "st_imtime": "2024-01-18T09:11:28.946077Z",
      "status_rh": "INDEXED",
      "status_h1d": "OK",
      "status_h2d": "OK"
    },
    {
      "id": 3,
      "file_path": "/home/gamoreir/data_mlplayground_dqmio/nanodqmio_from_das/store_data_Run2022A_ZeroBias_DQMIO_19Jan2023-v2_30000_18BE9BCB-8882-4E60-B021-AE2866470FA8.root",
      "data_era": "2022A",
      "n_entries": 188892,
      "n_entries_ingested": 153252,
      "st_size": 143139982,
      "st_ctime": "2023-04-24T00:09:10Z",
      "st_mtime": "2023-04-24T00:09:10Z",
      "st_itime": "2024-01-17T10:03:55.185384Z",
      "st_imtime": "2024-01-18T09:17:59.226832Z",
      "status_rh": "INDEXED",
      "status_h1d": "OK",
      "status_h2d": "INDEXED"
    },
    {
      "id": 4,
      "file_path": "/home/gamoreir/data_mlplayground_dqmio/nanodqmio_from_das/store_data_Run2022A_ZeroBias_DQMIO_19Jan2023-v2_30000_23F53374-C49D-4BBA-BAB7-05412999556A.root",
      "data_era": "2022A",
      "n_entries": 0,
      "n_entries_ingested": 0,
      "st_size": 254684425,
      "st_ctime": "2023-04-24T00:08:56Z",
      "st_mtime": "2023-04-24T00:08:56Z",
      "st_itime": "2024-01-17T10:03:55.187674Z",
      "st_imtime": "2024-01-17T10:03:55.187679Z",
      "status_rh": "INDEXED",
      "status_h1d": "INDEXED",
      "status_h2d": "INDEXED"
    },
    {
      "id": 5,
      "file_path": "/home/gamoreir/data_mlplayground_dqmio/nanodqmio_from_das/store_data_Run2022A_ZeroBias_DQMIO_19Jan2023-v2_30000_298E9DED-706B-4E7B-9A84-765AB5B70373.root",
      "data_era": "2022A",
      "n_entries": 0,
      "n_entries_ingested": 0,
      "st_size": 164324224,
      "st_ctime": "2023-04-24T00:09:13Z",
      "st_mtime": "2023-04-24T00:09:13Z",
      "st_itime": "2024-01-17T10:03:55.190128Z",
      "st_imtime": "2024-01-17T10:03:55.190133Z",
      "status_rh": "INDEXED",
      "status_h1d": "INDEXED",
      "status_h2d": "INDEXED"
    },
    {
      "id": 6,
      "file_path": "/home/gamoreir/data_mlplayground_dqmio/nanodqmio_from_das/store_data_Run2022A_ZeroBias_DQMIO_19Jan2023-v2_30000_DD2CC4FA-EF58-49AF-9BFB-F0ABE41BC4F4.root",
      "data_era": "2022A",
      "n_entries": 0,
      "n_entries_ingested": 0,
      "st_size": 96116159,
      "st_ctime": "2023-04-24T00:08:43Z",
      "st_mtime": "2023-04-24T00:08:43Z",
      "st_itime": "2024-01-17T10:03:55.192357Z",
      "st_imtime": "2024-01-17T10:03:55.192363Z",
      "status_rh": "INDEXED",
      "status_h1d": "INDEXED",
      "status_h2d": "INDEXED"
    },
    {
      "id": 7,
      "file_path": "/home/gamoreir/data_mlplayground_dqmio/nanodqmio_from_das/store_data_Run2022B_ZeroBias_DQMIO_19Jan2023-v2_2550000_1B69EB3A-B5E1-4E41-B8E2-AED5346C434C.root",
      "data_era": "2022B",
      "n_entries": 0,
      "n_entries_ingested": 0,
      "st_size": 3897371,
      "st_ctime": "2023-04-24T04:13:50Z",
      "st_mtime": "2023-04-24T04:13:50Z",
      "st_itime": "2024-01-17T10:03:55.194726Z",
      "st_imtime": "2024-01-17T10:03:55.194730Z",
      "status_rh": "INDEXED",
      "status_h1d": "INDEXED",
      "status_h2d": "INDEXED"
    },
    {
      "id": 8,
      "file_path": "/home/gamoreir/data_mlplayground_dqmio/nanodqmio_from_das/store_data_Run2022B_ZeroBias_DQMIO_19Jan2023-v2_2550000_2BB699FA-3C27-4AD9-8196-0B7B65F3AAB2.root",
      "data_era": "2022B",
      "n_entries": 0,
      "n_entries_ingested": 0,
      "st_size": 5590192,
      "st_ctime": "2023-04-24T04:11:26Z",
      "st_mtime": "2023-04-24T04:11:26Z",
      "st_itime": "2024-01-17T10:03:55.197900Z",
      "st_imtime": "2024-01-17T10:03:55.197916Z",
      "status_rh": "INDEXED",
      "status_h1d": "INDEXED",
      "status_h2d": "INDEXED"
    },
    {
      "id": 9,
      "file_path": "/home/gamoreir/data_mlplayground_dqmio/nanodqmio_from_das/store_data_Run2022B_ZeroBias_DQMIO_19Jan2023-v2_2550000_663F833B-0425-4EC4-8DB7-4D53D3DEE728.root",
      "data_era": "2022B",
      "n_entries": 0,
      "n_entries_ingested": 0,
      "st_size": 9357945,
      "st_ctime": "2023-04-24T04:11:24Z",
      "st_mtime": "2023-04-24T04:11:24Z",
      "st_itime": "2024-01-17T10:03:55.202992Z",
      "st_imtime": "2024-01-17T10:03:55.202999Z",
      "status_rh": "INDEXED",
      "status_h1d": "INDEXED",
      "status_h2d": "INDEXED"
    },
    {
      "id": 10,
      "file_path": "/home/gamoreir/data_mlplayground_dqmio/nanodqmio_from_das/store_data_Run2022B_ZeroBias_DQMIO_19Jan2023-v2_2550000_89B9C584-9CCF-4E73-9EF6-FD69B0ECD3B9.root",
      "data_era": "2022B",
      "n_entries": 0,
      "n_entries_ingested": 0,
      "st_size": 1244067214,
      "st_ctime": "2023-04-24T04:13:16Z",
      "st_mtime": "2023-04-24T04:13:16Z",
      "st_itime": "2024-01-17T10:03:55.205914Z",
      "st_imtime": "2024-01-17T10:03:55.205919Z",
      "status_rh": "INDEXED",
      "status_h1d": "INDEXED",
      "status_h2d": "INDEXED"
    }
  ]
}
