{
  "count": 30,
  "next": "http://localhost:8000/api/lumisection/?page=3",
  "previous": "http://localhost:8000/api/lumisection/",
  "results": [
    {
      "id": 11,
      "ls_number": 118,
      "date": "2024-01-17T15:08:41.824164Z",
      "oms_zerobias_rate": null,
      "run": 352567
    },
    {
      "id": 12,
      "ls_number": 119,
      "date": "2024-01-17T15:08:42.118678Z",
      "oms_zerobias_rate": null,
      "run": 352567
    },
    {
      "id": 13,
      "ls_number": 120,
      "date": "2024-01-17T15:08:42.375772Z",
      "oms_zerobias_rate": null,
      "run": 352567
    },
    {
      "id": 14,
      "ls_number": 121,
      "date": "2024-01-17T15:08:42.661463Z",
      "oms_zerobias_rate": null,
      "run": 352567
    },
    {
      "id": 15,
      "ls_number": 122,
      "date": "2024-01-17T15:08:42.897635Z",
      "oms_zerobias_rate": null,
      "run": 352567
    },
    {
      "id": 16,
      "ls_number": 123,
      "date": "2024-01-17T15:08:43.145448Z",
      "oms_zerobias_rate": null,
      "run": 352567
    },
    {
      "id": 17,
      "ls_number": 124,
      "date": "2024-01-17T15:08:43.435042Z",
      "oms_zerobias_rate": null,
      "run": 352567
    },
    {
      "id": 18,
      "ls_number": 125,
      "date": "2024-01-17T15:08:43.697852Z",
      "oms_zerobias_rate": null,
      "run": 352567
    },
    {
      "id": 19,
      "ls_number": 108,
      "date": "2024-01-17T15:08:43.961045Z",
      "oms_zerobias_rate": null,
      "run": 352572
    },
    {
      "id": 20,
      "ls_number": 109,
      "date": "2024-01-17T15:08:44.203866Z",
      "oms_zerobias_rate": null,
      "run": 352572
    }
  ]
}