{
  "count": 30,
  "next": "http://localhost:8000/api/lumisectionHistogram1D/?page=3",
  "previous": "http://localhost:8000/api/lumisectionHistogram1D/",
  "results": [
    {
      "id": 11,
      "date": "2024-01-17T10:07:37.573429Z",
      "title": "JetMET/Jet/Cleanedak4PFJetsCHS/CHFrac_lowPt_Barrel",
      "entries": 0,
      "data": [
        0,
        0,
        0,
        0,
        0,
        0,
        0,
        0,
        0,
        0,
        0,
        0,
        0,
        0,
        0,
        0,
        0,
        0,
        0,
        0,
        0,
        0,
        0,
        0,
        0,
        0,
        0,
        0,
        0,
        0,
        0,
        0,
        0,
        0,
        0,
        0,
        0,
        0,
        0,
        0,
        0,
        0,
        0,
        0,
        0,
        0,
        0,
        0,
        0,
        0,
        0,
        0,
        0,
        0,
        0,
        0,
        0,
        0,
        0,
        0,
        0,
        0,
        0,
        0,
        0,
        0,
        0,
        0,
        0,
        0,
        0,
        0,
        0,
        0,
        0,
        0,
        0,
        0,
        0,
        0,
        0,
        0,
        0,
        0,
        0,
        0,
        0,
        0,
        0,
        0,
        0,
        0,
        0,
        0,
        0,
        0,
        0,
        0,
        0,
        0,
        0,
        0,
        0,
        0,
        0,
        0,
        0,
        0,
        0,
        0,
        0,
        0,
        0,
        0,
        0,
        0,
        0,
        0,
        0,
        0
      ],
      "x_min": -0.1,
      "x_max": 1.1,
      "x_bin": 120,
      "source_data_file": 1,
      "lumisection": 1
    },
    {
      "id": 12,
      "date": "2024-01-17T10:07:37.573500Z",
      "title": "JetMET/Jet/Cleanedak4PFJetsCHS/CHFrac_lowPt_EndCap",
      "entries": 0,
      "data": [
        0,
        0,
        0,
        0,
        0,
        0,
        0,
        0,
        0,
        0,
        0,
        0,
        0,
        0,
        0,
        0,
        0,
        0,
        0,
        0,
        0,
        0,
        0,
        0,
        0,
        0,
        0,
        0,
        0,
        0,
        0,
        0,
        0,
        0,
        0,
        0,
        0,
        0,
        0,
        0,
        0,
        0,
        0,
        0,
        0,
        0,
        0,
        0,
        0,
        0,
        0,
        0,
        0,
        0,
        0,
        0,
        0,
        0,
        0,
        0,
        0,
        0,
        0,
        0,
        0,
        0,
        0,
        0,
        0,
        0,
        0,
        0,
        0,
        0,
        0,
        0,
        0,
        0,
        0,
        0,
        0,
        0,
        0,
        0,
        0,
        0,
        0,
        0,
        0,
        0,
        0,
        0,
        0,
        0,
        0,
        0,
        0,
        0,
        0,
        0,
        0,
        0,
        0,
        0,
        0,
        0,
        0,
        0,
        0,
        0,
        0,
        0,
        0,
        0,
        0,
        0,
        0,
        0,
        0,
        0
      ],
      "x_min": -0.1,
      "x_max": 1.1,
      "x_bin": 120,
      "source_data_file": 1,
      "lumisection": 1
    },
    {
      "id": 13,
      "date": "2024-01-17T10:07:37.573569Z",
      "title": "JetMET/Jet/Cleanedak4PFJetsCHS/CHFrac_mediumPt_Barrel",
      "entries": 0,
      "data": [
        0,
        0,
        0,
        0,
        0,
        0,
        0,
        0,
        0,
        0,
        0,
        0,
        0,
        0,
        0,
        0,
        0,
        0,
        0,
        0,
        0,
        0,
        0,
        0,
        0,
        0,
        0,
        0,
        0,
        0,
        0,
        0,
        0,
        0,
        0,
        0,
        0,
        0,
        0,
        0,
        0,
        0,
        0,
        0,
        0,
        0,
        0,
        0,
        0,
        0,
        0,
        0,
        0,
        0,
        0,
        0,
        0,
        0,
        0,
        0,
        0,
        0,
        0,
        0,
        0,
        0,
        0,
        0,
        0,
        0,
        0,
        0,
        0,
        0,
        0,
        0,
        0,
        0,
        0,
        0,
        0,
        0,
        0,
        0,
        0,
        0,
        0,
        0,
        0,
        0,
        0,
        0,
        0,
        0,
        0,
        0,
        0,
        0,
        0,
        0,
        0,
        0,
        0,
        0,
        0,
        0,
        0,
        0,
        0,
        0,
        0,
        0,
        0,
        0,
        0,
        0,
        0,
        0,
        0,
        0
      ],
      "x_min": -0.1,
      "x_max": 1.1,
      "x_bin": 120,
      "source_data_file": 1,
      "lumisection": 1
    },
    {
      "id": 14,
      "date": "2024-01-17T10:07:37.573642Z",
      "title": "JetMET/Jet/Cleanedak4PFJetsCHS/CHFrac_mediumPt_EndCap",
      "entries": 0,
      "data": [
        0,
        0,
        0,
        0,
        0,
        0,
        0,
        0,
        0,
        0,
        0,
        0,
        0,
        0,
        0,
        0,
        0,
        0,
        0,
        0,
        0,
        0,
        0,
        0,
        0,
        0,
        0,
        0,
        0,
        0,
        0,
        0,
        0,
        0,
        0,
        0,
        0,
        0,
        0,
        0,
        0,
        0,
        0,
        0,
        0,
        0,
        0,
        0,
        0,
        0,
        0,
        0,
        0,
        0,
        0,
        0,
        0,
        0,
        0,
        0,
        0,
        0,
        0,
        0,
        0,
        0,
        0,
        0,
        0,
        0,
        0,
        0,
        0,
        0,
        0,
        0,
        0,
        0,
        0,
        0,
        0,
        0,
        0,
        0,
        0,
        0,
        0,
        0,
        0,
        0,
        0,
        0,
        0,
        0,
        0,
        0,
        0,
        0,
        0,
        0,
        0,
        0,
        0,
        0,
        0,
        0,
        0,
        0,
        0,
        0,
        0,
        0,
        0,
        0,
        0,
        0,
        0,
        0,
        0,
        0
      ],
      "x_min": -0.1,
      "x_max": 1.1,
      "x_bin": 120,
      "source_data_file": 1,
      "lumisection": 1
    },
    {
      "id": 15,
      "date": "2024-01-17T10:07:37.573712Z",
      "title": "JetMET/Jet/Cleanedak4PFJetsCHS/ChMultiplicity_highPt_Barrel",
      "entries": 0,
      "data": [
        0,
        0,
        0,
        0,
        0,
        0,
        0,
        0,
        0,
        0,
        0,
        0,
        0,
        0,
        0,
        0,
        0,
        0,
        0,
        0,
        0,
        0,
        0,
        0,
        0,
        0,
        0,
        0,
        0,
        0,
        0,
        0,
        0,
        0,
        0,
        0,
        0,
        0,
        0,
        0,
        0,
        0,
        0,
        0,
        0,
        0,
        0,
        0,
        0,
        0,
        0,
        0,
        0,
        0,
        0,
        0,
        0,
        0,
        0,
        0
      ],
      "x_min": 0,
      "x_max": 60,
      "x_bin": 60,
      "source_data_file": 1,
      "lumisection": 1
    },
    {
      "id": 16,
      "date": "2024-01-17T10:07:37.573769Z",
      "title": "JetMET/Jet/Cleanedak4PFJetsCHS/ChMultiplicity_highPt_EndCap",
      "entries": 0,
      "data": [
        0,
        0,
        0,
        0,
        0,
        0,
        0,
        0,
        0,
        0,
        0,
        0,
        0,
        0,
        0,
        0,
        0,
        0,
        0,
        0,
        0,
        0,
        0,
        0,
        0,
        0,
        0,
        0,
        0,
        0,
        0,
        0,
        0,
        0,
        0,
        0,
        0,
        0,
        0,
        0,
        0,
        0,
        0,
        0,
        0,
        0,
        0,
        0,
        0,
        0,
        0,
        0,
        0,
        0,
        0,
        0,
        0,
        0,
        0,
        0
      ],
      "x_min": 0,
      "x_max": 60,
      "x_bin": 60,
      "source_data_file": 1,
      "lumisection": 1
    },
    {
      "id": 17,
      "date": "2024-01-17T10:07:37.573824Z",
      "title": "JetMET/Jet/Cleanedak4PFJetsCHS/ChMultiplicity_lowPt_Barrel",
      "entries": 0,
      "data": [
        0,
        0,
        0,
        0,
        0,
        0,
        0,
        0,
        0,
        0,
        0,
        0,
        0,
        0,
        0,
        0,
        0,
        0,
        0,
        0,
        0,
        0,
        0,
        0,
        0,
        0,
        0,
        0,
        0,
        0,
        0,
        0,
        0,
        0,
        0,
        0,
        0,
        0,
        0,
        0,
        0,
        0,
        0,
        0,
        0,
        0,
        0,
        0,
        0,
        0,
        0,
        0,
        0,
        0,
        0,
        0,
        0,
        0,
        0,
        0
      ],
      "x_min": 0,
      "x_max": 60,
      "x_bin": 60,
      "source_data_file": 1,
      "lumisection": 1
    },
    {
      "id": 18,
      "date": "2024-01-17T10:07:37.573878Z",
      "title": "JetMET/Jet/Cleanedak4PFJetsCHS/ChMultiplicity_lowPt_EndCap",
      "entries": 0,
      "data": [
        0,
        0,
        0,
        0,
        0,
        0,
        0,
        0,
        0,
        0,
        0,
        0,
        0,
        0,
        0,
        0,
        0,
        0,
        0,
        0,
        0,
        0,
        0,
        0,
        0,
        0,
        0,
        0,
        0,
        0,
        0,
        0,
        0,
        0,
        0,
        0,
        0,
        0,
        0,
        0,
        0,
        0,
        0,
        0,
        0,
        0,
        0,
        0,
        0,
        0,
        0,
        0,
        0,
        0,
        0,
        0,
        0,
        0,
        0,
        0
      ],
      "x_min": 0,
      "x_max": 60,
      "x_bin": 60,
      "source_data_file": 1,
      "lumisection": 1
    },
    {
      "id": 19,
      "date": "2024-01-17T10:07:37.573934Z",
      "title": "JetMET/Jet/Cleanedak4PFJetsCHS/ChMultiplicity_mediumPt_Barrel",
      "entries": 0,
      "data": [
        0,
        0,
        0,
        0,
        0,
        0,
        0,
        0,
        0,
        0,
        0,
        0,
        0,
        0,
        0,
        0,
        0,
        0,
        0,
        0,
        0,
        0,
        0,
        0,
        0,
        0,
        0,
        0,
        0,
        0,
        0,
        0,
        0,
        0,
        0,
        0,
        0,
        0,
        0,
        0,
        0,
        0,
        0,
        0,
        0,
        0,
        0,
        0,
        0,
        0,
        0,
        0,
        0,
        0,
        0,
        0,
        0,
        0,
        0,
        0
      ],
      "x_min": 0,
      "x_max": 60,
      "x_bin": 60,
      "source_data_file": 1,
      "lumisection": 1
    },
    {
      "id": 20,
      "date": "2024-01-17T10:07:37.573988Z",
      "title": "JetMET/Jet/Cleanedak4PFJetsCHS/ChMultiplicity_mediumPt_EndCap",
      "entries": 0,
      "data": [
        0,
        0,
        0,
        0,
        0,
        0,
        0,
        0,
        0,
        0,
        0,
        0,
        0,
        0,
        0,
        0,
        0,
        0,
        0,
        0,
        0,
        0,
        0,
        0,
        0,
        0,
        0,
        0,
        0,
        0,
        0,
        0,
        0,
        0,
        0,
        0,
        0,
        0,
        0,
        0,
        0,
        0,
        0,
        0,
        0,
        0,
        0,
        0,
        0,
        0,
        0,
        0,
        0,
        0,
        0,
        0,
        0,
        0,
        0,
        0
      ],
      "x_min": 0,
      "x_max": 60,
      "x_bin": 60,
      "source_data_file": 1,
      "lumisection": 1
    }
  ]
}