{
  "count": 30,
  "next": "http://localhost:8000/api/lumisectionHistogram1D/?page=2",
  "previous": null,
  "results": [
    {
      "id": 1,
      "date": "2024-01-17T10:07:37.572793Z",
      "title": "EcalBarrel/EBOccupancyTask/EBOT digi occupancy projection eta",
      "entries": 826967,
      "data": [
        37442,
        36869,
        33393,
        30399,
        32400,
        26533,
        25025,
        24463,
        22070,
        22298,
        20858,
        18937,
        17976,
        16001,
        16378,
        16193,
        16429,
        17090,
        16625,
        17153,
        17099,
        17132,
        19212,
        20456,
        21056,
        22906,
        24725,
        24976,
        26863,
        28812,
        31980,
        33147,
        36490,
        37581
      ],
      "x_min": -1.4789999723434448,
      "x_max": 1.4789999723434448,
      "x_bin": 34,
      "source_data_file": 1,
      "lumisection": 1
    },
    {
      "id": 2,
      "date": "2024-01-17T10:07:37.572871Z",
      "title": "EcalBarrel/EBOccupancyTask/EBOT digi occupancy projection phi",
      "entries": 826967,
      "data": [
        22473,
        22844,
        24213,
        23796,
        23960,
        23088,
        22693,
        22000,
        23284,
        23311,
        22290,
        21791,
        22911,
        23217,
        22508,
        21485,
        21146,
        22021,
        21967,
        21544,
        23874,
        22578,
        23405,
        24453,
        23156,
        28180,
        24523,
        23158,
        23533,
        24021,
        22362,
        22992,
        21384,
        23250,
        21818,
        21738
      ],
      "x_min": -0.1745329201221466,
      "x_max": 6.108652591705322,
      "x_bin": 36,
      "source_data_file": 1,
      "lumisection": 1
    },
    {
      "id": 3,
      "date": "2024-01-17T10:07:37.572925Z",
      "title": "EcalEndcap/EEOccupancyTask/EEOT digi occupancy EE + projection eta",
      "entries": 118268,
      "data": [
        8663,
        14545,
        10062,
        8599,
        8388,
        7320,
        7306,
        6606,
        6185,
        6287,
        6086,
        5017,
        4621,
        3852,
        3371,
        2924,
        2616,
        2601,
        2780,
        439
      ],
      "x_min": 1.4789999723434448,
      "x_max": 3,
      "x_bin": 20,
      "source_data_file": 1,
      "lumisection": 1
    },
    {
      "id": 4,
      "date": "2024-01-17T10:07:37.572973Z",
      "title": "EcalEndcap/EEOccupancyTask/EEOT digi occupancy EE + projection phi",
      "entries": 118268,
      "data": [
        3444,
        3496,
        3160,
        3243,
        3503,
        3612,
        3562,
        3170,
        3328,
        3399,
        3365,
        2894,
        3265,
        3149,
        4124,
        3278,
        3098,
        3211,
        3246,
        2879,
        2660,
        2439,
        3196,
        3403,
        3356,
        3222,
        4458,
        4075,
        3434,
        3167,
        2583,
        2753,
        3817,
        3245,
        2918,
        3116
      ],
      "x_min": -0.1745329201221466,
      "x_max": 6.108652591705322,
      "x_bin": 36,
      "source_data_file": 1,
      "lumisection": 1
    },
    {
      "id": 5,
      "date": "2024-01-17T10:07:37.573026Z",
      "title": "EcalEndcap/EEOccupancyTask/EEOT digi occupancy EE - projection eta",
      "entries": 114940,
      "data": [
        366,
        2774,
        3064,
        2719,
        3711,
        3785,
        4181,
        4476,
        4706,
        5323,
        5935,
        6102,
        5795,
        7013,
        7215,
        8297,
        8016,
        8934,
        13503,
        9025
      ],
      "x_min": -3,
      "x_max": -1.4789999723434448,
      "x_bin": 20,
      "source_data_file": 1,
      "lumisection": 1
    },
    {
      "id": 6,
      "date": "2024-01-17T10:07:37.573073Z",
      "title": "EcalEndcap/EEOccupancyTask/EEOT digi occupancy EE - projection phi",
      "entries": 114940,
      "data": [
        2936,
        3241,
        2849,
        2963,
        3272,
        3774,
        2873,
        3065,
        3416,
        3769,
        3597,
        3278,
        3083,
        3688,
        4228,
        3827,
        2947,
        2783,
        2926,
        2754,
        2729,
        2745,
        2824,
        3188,
        2712,
        2933,
        3000,
        3267,
        3491,
        3540,
        3011,
        3628,
        3510,
        3555,
        2881,
        2657
      ],
      "x_min": -0.1745329201221466,
      "x_max": 6.108652591705322,
      "x_bin": 36,
      "source_data_file": 1,
      "lumisection": 1
    },
    {
      "id": 7,
      "date": "2024-01-17T10:07:37.573134Z",
      "title": "HLT/SiStrip/MechanicalView/NumberOfClustersInPixel",
      "entries": 0,
      "data": [
        0,
        0,
        0,
        0,
        0,
        0,
        0,
        0,
        0,
        0,
        0,
        0,
        0,
        0,
        0,
        0,
        0,
        0,
        0,
        0,
        0,
        0,
        0,
        0,
        0,
        0,
        0,
        0,
        0,
        0,
        0,
        0,
        0,
        0,
        0,
        0,
        0,
        0,
        0,
        0,
        0,
        0,
        0,
        0,
        0,
        0,
        0,
        0,
        0,
        0,
        0,
        0,
        0,
        0,
        0,
        0,
        0,
        0,
        0,
        0,
        0,
        0,
        0,
        0,
        0,
        0,
        0,
        0,
        0,
        0,
        0,
        0,
        0,
        0,
        0,
        0,
        0,
        0,
        0,
        0,
        0,
        0,
        0,
        0,
        0,
        0,
        0,
        0,
        0,
        0,
        0,
        0,
        0,
        0,
        0,
        0,
        0,
        0,
        0,
        0,
        0,
        0,
        0,
        0,
        0,
        0,
        0,
        0,
        0,
        0,
        0,
        0,
        0,
        0,
        0,
        0,
        0,
        0,
        0,
        0,
        0,
        0,
        0,
        0,
        0,
        0,
        0,
        0,
        0,
        0,
        0,
        0,
        0,
        0,
        0,
        0,
        0,
        0,
        0,
        0,
        0,
        0,
        0,
        0,
        0,
        0,
        0,
        0,
        0,
        0,
        0,
        0,
        0,
        0,
        0,
        0,
        0,
        0,
        0,
        0,
        0,
        0,
        0,
        0,
        0,
        0,
        0,
        0,
        0,
        0
      ],
      "x_min": -0.5,
      "x_max": 50999.5,
      "x_bin": 170,
      "source_data_file": 1,
      "lumisection": 1
    },
    {
      "id": 8,
      "date": "2024-01-17T10:07:37.573219Z",
      "title": "JetMET/vertices",
      "entries": 932,
      "data": [
        932,
        0,
        0,
        0,
        0,
        0,
        0,
        0,
        0,
        0,
        0,
        0,
        0,
        0,
        0,
        0,
        0,
        0,
        0,
        0,
        0,
        0,
        0,
        0,
        0,
        0,
        0,
        0,
        0,
        0,
        0,
        0,
        0,
        0,
        0,
        0,
        0,
        0,
        0,
        0,
        0,
        0,
        0,
        0,
        0,
        0,
        0,
        0,
        0,
        0,
        0,
        0,
        0,
        0,
        0,
        0,
        0,
        0,
        0,
        0,
        0,
        0,
        0,
        0,
        0,
        0,
        0,
        0,
        0,
        0,
        0,
        0,
        0,
        0,
        0,
        0,
        0,
        0,
        0,
        0,
        0,
        0,
        0,
        0,
        0,
        0,
        0,
        0,
        0,
        0,
        0,
        0,
        0,
        0,
        0,
        0,
        0,
        0,
        0,
        0
      ],
      "x_min": 0,
      "x_max": 100,
      "x_bin": 100,
      "source_data_file": 1,
      "lumisection": 1
    },
    {
      "id": 9,
      "date": "2024-01-17T10:07:37.573288Z",
      "title": "JetMET/Jet/Cleanedak4PFJetsCHS/CHFrac_highPt_Barrel",
      "entries": 0,
      "data": [
        0,
        0,
        0,
        0,
        0,
        0,
        0,
        0,
        0,
        0,
        0,
        0,
        0,
        0,
        0,
        0,
        0,
        0,
        0,
        0,
        0,
        0,
        0,
        0,
        0,
        0,
        0,
        0,
        0,
        0,
        0,
        0,
        0,
        0,
        0,
        0,
        0,
        0,
        0,
        0,
        0,
        0,
        0,
        0,
        0,
        0,
        0,
        0,
        0,
        0,
        0,
        0,
        0,
        0,
        0,
        0,
        0,
        0,
        0,
        0,
        0,
        0,
        0,
        0,
        0,
        0,
        0,
        0,
        0,
        0,
        0,
        0,
        0,
        0,
        0,
        0,
        0,
        0,
        0,
        0,
        0,
        0,
        0,
        0,
        0,
        0,
        0,
        0,
        0,
        0,
        0,
        0,
        0,
        0,
        0,
        0,
        0,
        0,
        0,
        0,
        0,
        0,
        0,
        0,
        0,
        0,
        0,
        0,
        0,
        0,
        0,
        0,
        0,
        0,
        0,
        0,
        0,
        0,
        0,
        0
      ],
      "x_min": -0.1,
      "x_max": 1.1,
      "x_bin": 120,
      "source_data_file": 1,
      "lumisection": 1
    },
    {
      "id": 10,
      "date": "2024-01-17T10:07:37.573359Z",
      "title": "JetMET/Jet/Cleanedak4PFJetsCHS/CHFrac_highPt_EndCap",
      "entries": 0,
      "data": [
        0,
        0,
        0,
        0,
        0,
        0,
        0,
        0,
        0,
        0,
        0,
        0,
        0,
        0,
        0,
        0,
        0,
        0,
        0,
        0,
        0,
        0,
        0,
        0,
        0,
        0,
        0,
        0,
        0,
        0,
        0,
        0,
        0,
        0,
        0,
        0,
        0,
        0,
        0,
        0,
        0,
        0,
        0,
        0,
        0,
        0,
        0,
        0,
        0,
        0,
        0,
        0,
        0,
        0,
        0,
        0,
        0,
        0,
        0,
        0,
        0,
        0,
        0,
        0,
        0,
        0,
        0,
        0,
        0,
        0,
        0,
        0,
        0,
        0,
        0,
        0,
        0,
        0,
        0,
        0,
        0,
        0,
        0,
        0,
        0,
        0,
        0,
        0,
        0,
        0,
        0,
        0,
        0,
        0,
        0,
        0,
        0,
        0,
        0,
        0,
        0,
        0,
        0,
        0,
        0,
        0,
        0,
        0,
        0,
        0,
        0,
        0,
        0,
        0,
        0,
        0,
        0,
        0,
        0,
        0
      ],
      "x_min": -0.1,
      "x_max": 1.1,
      "x_bin": 120,
      "source_data_file": 1,
      "lumisection": 1
    }
  ]
}