{
  "count": 30,
  "next": "http://localhost:8000/api/lumisection/?page=2",
  "previous": null,
  "results": [
    {
      "id": 1,
      "ls_number": 37,
      "date": "2024-01-17T10:07:37.442150Z",
      "oms_zerobias_rate": null,
      "run": 357538
    },
    {
      "id": 2,
      "ls_number": 38,
      "date": "2024-01-17T10:07:37.611875Z",
      "oms_zerobias_rate": null,
      "run": 357538
    },
    {
      "id": 3,
      "ls_number": 39,
      "date": "2024-01-17T10:07:37.799307Z",
      "oms_zerobias_rate": null,
      "run": 357538
    },
    {
      "id": 4,
      "ls_number": 40,
      "date": "2024-01-17T10:07:37.987809Z",
      "oms_zerobias_rate": null,
      "run": 357538
    },
    {
      "id": 5,
      "ls_number": 41,
      "date": "2024-01-17T10:07:38.206180Z",
      "oms_zerobias_rate": null,
      "run": 357538
    },
    {
      "id": 6,
      "ls_number": 42,
      "date": "2024-01-17T10:07:38.396008Z",
      "oms_zerobias_rate": null,
      "run": 357538
    },
    {
      "id": 7,
      "ls_number": 43,
      "date": "2024-01-17T10:07:38.608689Z",
      "oms_zerobias_rate": null,
      "run": 357538
    },
    {
      "id": 8,
      "ls_number": 44,
      "date": "2024-01-17T10:07:38.868706Z",
      "oms_zerobias_rate": null,
      "run": 357538
    },
    {
      "id": 9,
      "ls_number": 45,
      "date": "2024-01-17T10:07:39.079931Z",
      "oms_zerobias_rate": null,
      "run": 357538
    },
    {
      "id": 10,
      "ls_number": 46,
      "date": "2024-01-17T10:07:39.252616Z",
      "oms_zerobias_rate": null,
      "run": 357538
    }
  ]
}