{
  "count": 17,
  "next": "http://localhost:8000/api/run/?page=2",
  "previous": null,
  "results": [
    {
      "run_number": 352567,
      "run_date": null,
      "year": null,
      "period": null,
      "date": "2024-01-17T15:08:41.820655Z",
      "oms_fill": null,
      "oms_lumisections": null,
      "oms_initial_lumi": null,
      "oms_end_lumi": null
    },
    {
      "run_number": 352572,
      "run_date": null,
      "year": null,
      "period": null,
      "date": "2024-01-17T15:08:43.959024Z",
      "oms_fill": null,
      "oms_lumisections": null,
      "oms_initial_lumi": null,
      "oms_end_lumi": null
    },
    {
      "run_number": 352900,
      "run_date": null,
      "year": null,
      "period": null,
      "date": "2024-01-17T15:08:44.689604Z",
      "oms_fill": null,
      "oms_lumisections": null,
      "oms_initial_lumi": null,
      "oms_end_lumi": null
    },
    {
      "run_number": 352903,
      "run_date": null,
      "year": null,
      "period": null,
      "date": "2024-01-17T15:08:50.936722Z",
      "oms_fill": null,
      "oms_lumisections": null,
      "oms_initial_lumi": null,
      "oms_end_lumi": null
    },
    {
      "run_number": 352906,
      "run_date": null,
      "year": null,
      "period": null,
      "date": "2024-01-17T15:08:53.274387Z",
      "oms_fill": null,
      "oms_lumisections": null,
      "oms_initial_lumi": null,
      "oms_end_lumi": null
    },
    {
      "run_number": 352907,
      "run_date": null,
      "year": null,
      "period": null,
      "date": "2024-01-17T15:09:04.779152Z",
      "oms_fill": null,
      "oms_lumisections": null,
      "oms_initial_lumi": null,
      "oms_end_lumi": null
    },
    {
      "run_number": 352908,
      "run_date": null,
      "year": null,
      "period": null,
      "date": "2024-01-17T15:09:14.867007Z",
      "oms_fill": null,
      "oms_lumisections": null,
      "oms_initial_lumi": null,
      "oms_end_lumi": null
    },
    {
      "run_number": 352909,
      "run_date": null,
      "year": null,
      "period": null,
      "date": "2024-01-17T15:09:25.204324Z",
      "oms_fill": null,
      "oms_lumisections": null,
      "oms_initial_lumi": null,
      "oms_end_lumi": null
    },
    {
      "run_number": 352911,
      "run_date": null,
      "year": null,
      "period": null,
      "date": "2024-01-18T09:12:22.829486Z",
      "oms_fill": null,
      "oms_lumisections": null,
      "oms_initial_lumi": null,
      "oms_end_lumi": null
    },
    {
      "run_number": 352929,
      "run_date": null,
      "year": null,
      "period": null,
      "date": "2024-01-18T09:12:24.259206Z",
      "oms_fill": null,
      "oms_lumisections": null,
      "oms_initial_lumi": null,
      "oms_end_lumi": null
    }
  ]
}