{
  "count": 67,
  "next": "http://localhost:8000/api/celeryTasks/?page=2",
  "previous": null,
  "results": [
    {
      "task_id": "cf5d2bd0-13b6-41dc-94ca-e8ed945e3e73",
      "status": "SUCCESS",
      "date_created": "2024-01-23T08:18:50.064066Z",
      "date_done": "2024-01-23T08:19:05.706503Z",
      "elapsed_time": 15.642437
    },
    {
      "task_id": "699b3fd2-0514-436f-986a-665cf5374a47",
      "status": "SUCCESS",
      "date_created": "2024-01-23T08:17:46.707227Z",
      "date_done": "2024-01-23T08:18:50.047373Z",
      "elapsed_time": 63.340146
    },
    {
      "task_id": "4f160981-368a-4140-b6b5-7058c2223629",
      "status": "SUCCESS",
      "date_created": "2024-01-23T08:17:29.144411Z",
      "date_done": "2024-01-23T08:17:46.696209Z",
      "elapsed_time": 17.551798
    },
    {
      "task_id": "7de279d5-1d39-4e16-bbaa-69579fa61b2b",
      "status": "SUCCESS",
      "date_created": "2024-01-23T08:17:07.473480Z",
      "date_done": "2024-01-23T08:17:07.477736Z",
      "elapsed_time": 0.004256
    },
    {
      "task_id": "6cff68b5-865f-4d1f-a109-1dbf02f88700",
      "status": "SUCCESS",
      "date_created": "2024-01-23T08:17:06.781348Z",
      "date_done": "2024-01-23T08:17:06.786515Z",
      "elapsed_time": 0.005167
    },
    {
      "task_id": "48144271-6057-4eb0-b117-ae7c06837df7",
      "status": "SUCCESS",
      "date_created": "2024-01-23T08:17:05.748519Z",
      "date_done": "2024-01-23T08:17:05.755106Z",
      "elapsed_time": 0.006587
    },
    {
      "task_id": "a38e87e8-05ad-4dc9-b4fe-38414ca7fc21",
      "status": "SUCCESS",
      "date_created": "2024-01-22T18:23:58.727063Z",
      "date_done": "2024-01-22T18:26:48.222014Z",
      "elapsed_time": 169.494951
    },
    {
      "task_id": "e8b6049f-2ffb-445a-ac81-9600152ec57a",
      "status": "SUCCESS",
      "date_created": "2024-01-22T18:23:43.083531Z",
      "date_done": "2024-01-22T18:23:58.618433Z",
      "elapsed_time": 15.534902
    },
    {
      "task_id": "82150a39-eaad-405a-b4c2-dde43cd3269f",
      "status": "SUCCESS",
      "date_created": "2024-01-22T18:21:50.971084Z",
      "date_done": "2024-01-22T18:23:42.957726Z",
      "elapsed_time": 111.986642
    },
    {
      "task_id": "c2c4eee1-271a-4e77-9019-095aa3249bed",
      "status": "SUCCESS",
      "date_created": "2024-01-22T18:21:36.088508Z",
      "date_done": "2024-01-22T18:21:50.815414Z",
      "elapsed_time": 14.726906
    }
  ]
}